(footprint "Jack_3.5mm_MONO_35RAPC2AV_Horizontal" (version 20210108) (generator pcbnew) (layer "F.Cu")
  (tedit 601C5AB6)
  (descr "3.5mm, horizontal, through-hole, MONO, 35RAPC2AV")
  (tags "3.5mm horizontal through-hole MONO 35RAPC2AV Switchcraft")
  (attr through_hole)
  (fp_text reference "REF**" (at -5.7 2.3 90) (layer "F.SilkS")
    (effects (font (size 1 1) (thickness 0.15)))
    (tstamp 8ff5748c-988f-4f4f-808d-184373b55820)
  )
  (fp_text value "Jack_3.5mm_MONO_35RAPC2AV_Horizontal" (at 0.1 14.05) (layer "F.Fab")
    (effects (font (size 1 1) (thickness 0.15)))
    (tstamp ed915b13-5aec-4659-9ea1-4ea165a873ba)
  )
  (fp_text user "${REFERENCE}" (at 0.1 3.8) (layer "F.Fab")
    (effects (font (size 1 1) (thickness 0.15)))
    (tstamp 267ecf1b-ff08-44a6-8512-cef8e15901bc)
  )
  (fp_line (start -3.85 12.5) (end -3.85 -1.7) (layer "F.SilkS") (width 0.12) (tstamp 202d4174-e076-4389-9a94-94669594e52f))
  (fp_line (start 3.85 -1.7) (end 3.85 12.5) (layer "F.SilkS") (width 0.12) (tstamp 277746a8-62a9-4c14-919e-94165383fa41))
  (fp_line (start -3.1 -6.2) (end 3.1 -6.2) (layer "F.SilkS") (width 0.12) (tstamp 58f7e487-b321-45bf-b0d2-0b06c2f11bc0))
  (fp_line (start 3.1 -1.7) (end 3.85 -1.7) (layer "F.SilkS") (width 0.12) (tstamp a5fef69b-9a76-4363-8a82-7bf727d87d06))
  (fp_line (start -3.85 -1.7) (end -3.1 -1.7) (layer "F.SilkS") (width 0.12) (tstamp c4316884-9858-41d4-88e2-594e89de6c64))
  (fp_line (start 3.85 12.5) (end -3.85 12.5) (layer "F.SilkS") (width 0.12) (tstamp df1e66d1-2cf8-4402-9e4d-9796b4b3ee37))
  (fp_line (start -3.1 -1.7) (end -3.1 -6.2) (layer "F.SilkS") (width 0.12) (tstamp f280996c-797e-4713-82b9-f3c375cf5ead))
  (fp_line (start 3.1 -6.2) (end 3.1 -1.7) (layer "F.SilkS") (width 0.12) (tstamp f43b8c79-56d3-4129-9f89-713cba2b3341))
  (fp_line (start -4.5 -6.5) (end -4.5 13) (layer "F.CrtYd") (width 0.05) (tstamp 02a85c0b-73fc-43b9-b511-abe2e8e24d6e))
  (fp_line (start -4.5 13) (end 4.5 13) (layer "F.CrtYd") (width 0.05) (tstamp 046d36a0-adb0-469c-bbc8-20492f56f658))
  (fp_line (start 4.5 13) (end 4.5 -6.5) (layer "F.CrtYd") (width 0.05) (tstamp 0ece4d67-bab0-4ce1-9c68-a85496fac904))
  (fp_line (start 4.5 -6.5) (end -4.5 -6.5) (layer "F.CrtYd") (width 0.05) (tstamp a3141910-adec-42d4-b0f1-dedfea9b80b1))
  (fp_line (start 3 -6.1) (end 3 -1.6) (layer "F.Fab") (width 0.1) (tstamp 0bab9304-6969-471c-8f74-b1400a90ca29))
  (fp_line (start -3 -1.6) (end -3 -6.1) (layer "F.Fab") (width 0.1) (tstamp 2baff15d-c854-4c5f-99e7-f4a7f7889dc6))
  (fp_line (start -3.75 -1.6) (end -3 -1.6) (layer "F.Fab") (width 0.1) (tstamp 2d7bf8c4-f7d6-40b4-b277-72d7f1874401))
  (fp_line (start -3.75 12.4) (end -3.75 -1.6) (layer "F.Fab") (width 0.1) (tstamp 63b2cf5f-72ed-4b57-84df-97e8133f5529))
  (fp_line (start 3.75 -1.6) (end 3.75 12.4) (layer "F.Fab") (width 0.1) (tstamp 8c7e40ae-0542-418f-8b33-d5208589b155))
  (fp_line (start 3.75 12.4) (end -3.75 12.4) (layer "F.Fab") (width 0.1) (tstamp 8cdc3c3e-89b8-4bff-912e-5382420ee8f8))
  (fp_line (start -3 -6.1) (end 3 -6.1) (layer "F.Fab") (width 0.1) (tstamp ef3e484a-c214-47c9-b85c-98ebc1ea0f99))
  (fp_line (start 3 -1.6) (end 3.75 -1.6) (layer "F.Fab") (width 0.1) (tstamp fe9d9c96-e199-4d09-b139-bc7e20d6f023))
  (pad "S" thru_hole oval (at 0 0) (locked) (size 3.6 2.3) (drill oval 2.6 1.3) (layers *.Cu *.Mask) (tstamp e2c9fb89-c40c-4096-99be-679184921d50))
  (pad "T" thru_hole oval (at 0 5.3) (locked) (size 3.6 2.3) (drill oval 2.6 1.3) (layers *.Cu *.Mask) (tstamp 523914f1-b1c1-49a9-9a39-b8b8e18c3d2a))
  (pad "TN" thru_hole oval (at 0 11.1) (locked) (size 3.6 2.3) (drill oval 2.6 1.3) (layers *.Cu *.Mask) (tstamp 7631cb61-35e3-4def-a8f0-5c359b01bdc9))
  (model "${KIPRJMOD}/footprints/MONO_Jack_Switchcraft_35rapc2av.pretty/35RAPC2AV.STEP"
    (offset (xyz 0 6.25 7))
    (scale (xyz 1 1 1))
    (rotate (xyz -90 0 180))
  )
)
